<?xml version="1.0" encoding="utf-8"?>
<svg xmlns="http://www.w3.org/2000/svg" xmlns:xlink="http://www.w3.org/1999/xlink" style="margin: auto; background: none; display: block; shape-rendering: auto;" width="200px" height="200px" viewBox="0 0 100 100" preserveAspectRatio="xMidYMid">
<circle cx="50" cy="50" fill="none" stroke="#87764e" stroke-width="3" r="10" stroke-dasharray="47.12388980384689 17.707963267948966">
  <animateTransform attributeName="transform" type="rotate" repeatCount="indefinite" dur="1s" values="0 50 50;360 50 50" keyTimes="0;1"></animateTransform>
</circle>
<!-- [ldio] generated by https://loading.io/ --></svg>